[{
        "describeName": "Atención Normal",
        "typeAction": 0,
        "skip": true,
        "optionsChange": {
            "webServiceAutoCall": true,
            "attention_arrived": false,
            "client_type": false
        },
        "itsIteration": [
            { "nameCommand": "Terminar Atención", "command": "T", "skip": true },
            { "nameCommand": "Saltar Atención", "command": "S", "skip": true },
            {
                "nameCommand": "Rellamar/Terminar Atención",
                "command": "RT",
                "skip": true
            },
            {
                "nameCommand": "Rellamar/Saltar Atención",
                "command": "RS",
                "skip": true
            },
            { "nameCommand": "Llamar Saltado", "command": "LT", "skip": true },
            { "nameCommand": "Pausar Módulo", "command": "P", "skip": true },
            { "nameCommand": "Llamado Futuro", "command": "F", "skip": true },
            {
                "nameCommand": "Derivar Número/Terminar Atención",
                "command": "D",
                "skip": true
            },
            {
                "nameCommand": "Desconectarse/Volver a Conectarse",
                "command": "V",
                "skip": true
            }
        ]
    },
    {
        "describeName": "Atención Botón llego y tipo de cliente",
        "typeAction": 1,
        "skip": true,
        "optionsChange": {
            "webServiceAutoCall": true,
            "attention_arrived": true,
            "client_type": true
        },
        "itsIteration": [
            { "nameCommand": "Terminar Atención", "command": "T", "skip": true },
            { "nameCommand": "Saltar Atención", "command": "S", "skip": true },
            {
                "nameCommand": "Rellamar/Terminar Atención",
                "command": "RT",
                "skip": true
            },
            {
                "nameCommand": "Rellamar/Saltar Atención",
                "command": "RS",
                "skip": true
            },
            {
                "nameCommand": "Llamar Saltado",
                "command": "LT",
                "skip": true
            },
            { "nameCommand": "Pausar Módulo", "command": "P", "skip": true },
            { "nameCommand": "Llamado Futuro", "command": "F", "skip": true },
            {
                "nameCommand": "Derivar Número/Terminar Atención",
                "command": "D",
                "skip": true
            },
            {
                "nameCommand": "Desconectarse/Volver a Conectarse",
                "command": "V",
                "skip": true
            }
        ]
    },
    {
        "describeName": "Atención Video llamadas",
        "typeAction": 2,
        "skip": true,
        "optionsChange": {
            "webServiceAutoCall": true,
            "attention_arrived": true,
            "client_type": true
        },
        "itsIteration": [
            { "nameCommand": "Terminar Atención", "command": "UT", "skip": true },
            { "nameCommand": "Saltar Atención", "command": "S", "skip": true },
            {
                "nameCommand": "Rellamar/Terminar Atención",
                "command": "RUT",
                "skip": true
            },
            {
                "nameCommand": "Rellamar/Saltar Atención",
                "command": "RS",
                "skip": true
            },
            { "nameCommand": "Llamar Saltado", "command": "LUT", "skip": true },
            { "nameCommand": "Pausar Módulo", "command": "P", "skip": true },
            { "nameCommand": "Llamado Futuro", "command": "F", "skip": true },
            {
                "nameCommand": "Derivar Número/Terminar Atención",
                "command": "D",
                "skip": true
            },
            {
                "nameCommand": "Desconectarse/Volver a Conectarse",
                "command": "V",
                "skip": true
            }
        ]
    }
]